help.vcd
$date
	Sun Dec 20 15:12:37 2020
$end
$version
	Icarus Verilog
$end
$timescale
	10ps
$end
$scope module mips_cpu_bus_tb $end
$var wire 32 ! writedata [31:0] $end
$var wire 1 " write $end
$var wire 1 # waitrequest $end
$var wire 32 $ register_v0 [31:0] $end
$var wire 32 % readdata [31:0] $end
$var wire 1 & read $end
$var wire 4 ' byteenable [3:0] $end
$var wire 32 ( address [31:0] $end
$var wire 1 ) active $end
$var reg 1 * clk $end
$var reg 1 + clk_enable $end
$var reg 32 , final_value [31:0] $end
$var reg 1 - reset $end
$var integer 32 . fd [31:0] $end
$var integer 32 / x [31:0] $end
$scope module avalonInst $end
$var wire 32 0 branch_back [31:0] $end
$var wire 32 1 branch_forward [31:0] $end
$var wire 1 * clk $end
$var wire 32 2 from_zero [31:0] $end
$var wire 32 3 jump_forward [31:0] $end
$var wire 32 4 reset_instr [31:0] $end
$var wire 1 - rst $end
$var wire 32 5 zero_addr [31:0] $end
$var wire 32 6 writedata [31:0] $end
$var wire 1 " write $end
$var wire 32 7 temp_writedata [31:0] $end
$var wire 32 8 temp_olddata [31:0] $end
$var wire 32 9 reset_addr [31:0] $end
$var wire 1 & read $end
$var wire 32 : jump_forward_addr [31:0] $end
$var wire 4 ; byteenable [3:0] $end
$var wire 2 < byte_offset [1:0] $end
$var wire 32 = branch_forward_addr [31:0] $end
$var wire 32 > branch_back_addr [31:0] $end
$var wire 32 ? address [31:0] $end
$var reg 32 @ readdata [31:0] $end
$var reg 2 A state [1:0] $end
$var reg 1 # waitrequest $end
$var integer 32 B x [31:0] $end
$scope begin $unm_blk_172 $end
$var integer 32 C i [31:0] $end
$upscope $end
$upscope $end
$scope module cpuInst $end
$var wire 1 * clk $end
$var wire 32 D readdata [31:0] $end
$var wire 1 - reset $end
$var wire 1 # waitrequest $end
$var wire 32 E writedata [31:0] $end
$var wire 1 " write $end
$var wire 2 F store_type [1:0] $end
$var wire 32 G register_v0 [31:0] $end
$var wire 1 & read $end
$var wire 1 H pause $end
$var wire 32 I instr_readdata [31:0] $end
$var wire 32 J instr_address [31:0] $end
$var wire 32 K data_writedata [31:0] $end
$var wire 1 L data_write $end
$var wire 32 M data_readdata [31:0] $end
$var wire 1 N data_read $end
$var wire 32 O data_address [31:0] $end
$var wire 1 P clk_enable $end
$var wire 4 Q byteenable [3:0] $end
$var wire 32 R address [31:0] $end
$var wire 1 ) active $end
$var reg 1 S instr_read $end
$scope module busController $end
$var wire 32 T av_readdata [31:0] $end
$var wire 1 # av_waitrequest $end
$var wire 1 * clk $end
$var wire 1 S instr_read $end
$var wire 1 - reset $end
$var wire 2 U temp_offset [1:0] $end
$var wire 32 V temp_address [31:0] $end
$var wire 2 W store_type [1:0] $end
$var wire 32 X instr_address [31:0] $end
$var wire 32 Y data_writedata [31:0] $end
$var wire 1 L data_write $end
$var wire 1 N data_read $end
$var wire 32 Z data_address [31:0] $end
$var reg 32 [ av_address [31:0] $end
$var reg 4 \ av_byteenable [3:0] $end
$var reg 1 & av_read $end
$var reg 1 " av_write $end
$var reg 32 ] av_writedata [31:0] $end
$var reg 1 P clk_enable $end
$var reg 32 ^ data_readdata [31:0] $end
$var reg 32 _ instr_readdata [31:0] $end
$var reg 1 H pause $end
$var reg 3 ` state [2:0] $end
$var reg 4 a temp_byteenable [3:0] $end
$var reg 32 b temp_writedata [31:0] $end
$upscope $end
$scope module cpuHarvard $end
$var wire 1 * clk $end
$var wire 1 P clk_enable $end
$var wire 1 c clock_enable $end
$var wire 32 d data_readdata [31:0] $end
$var wire 32 e instr_readdata [31:0] $end
$var wire 1 H pause $end
$var wire 1 - reset $end
$var wire 32 f write_data [31:0] $end
$var wire 2 g store_type [1:0] $end
$var wire 5 h shamt [4:0] $end
$var wire 32 i selected_readdata [31:0] $end
$var wire 6 j rt_instr [5:0] $end
$var wire 32 k rt_content [31:0] $end
$var wire 32 l rs_content [31:0] $end
$var wire 32 m register_v0 [31:0] $end
$var wire 6 n opcode [5:0] $end
$var wire 32 o jump_address [31:0] $end
$var wire 32 p instr_address [31:0] $end
$var wire 16 q immediate [15:0] $end
$var wire 6 r functcode [5:0] $end
$var wire 32 s extendImm [31:0] $end
$var wire 1 t delay_early $end
$var wire 32 u delay_addr [31:0] $end
$var wire 1 L data_write $end
$var wire 1 N data_read $end
$var wire 32 v data_address [31:0] $end
$var wire 32 w branch_address [31:0] $end
$var wire 5 x WriteReg [4:0] $end
$var wire 2 y RegWrite [1:0] $end
$var wire 2 z RegDst [1:0] $end
$var wire 32 { PCplus8 [31:0] $end
$var wire 32 | PCplus4 [31:0] $end
$var wire 32 } PCin [31:0] $end
$var wire 3 ~ MemtoReg [2:0] $end
$var wire 2 !" LO_write [1:0] $end
$var wire 32 "" LO_reg [31:0] $end
$var wire 32 #" LO [31:0] $end
$var wire 1 $" Jump $end
$var wire 1 %" JR $end
$var wire 2 &" HI_write [1:0] $end
$var wire 32 '" HI_reg [31:0] $end
$var wire 32 (" HI [31:0] $end
$var wire 32 )" Extend32 [31:0] $end
$var wire 1 *" Branch $end
$var reg 1 ) active $end
$var reg 32 +" data_writedata [31:0] $end
$var reg 1 ," delay $end
$scope module HIreg $end
$var wire 32 -" ReadData [31:0] $end
$var wire 1 * clk $end
$var wire 1 - reset $end
$var wire 32 ." WriteData [31:0] $end
$var wire 2 /" RegWrite [1:0] $end
$var reg 32 0" register [31:0] $end
$upscope $end
$scope module LOreg $end
$var wire 32 1" ReadData [31:0] $end
$var wire 1 * clk $end
$var wire 1 - reset $end
$var wire 32 2" WriteData [31:0] $end
$var wire 2 3" RegWrite [1:0] $end
$var reg 32 4" register [31:0] $end
$upscope $end
$scope module add_alu $end
$var wire 32 5" extendImm [31:0] $end
$var wire 32 6" PCplus4 [31:0] $end
$var reg 32 7" Add_ALUresult [31:0] $end
$upscope $end
$scope module adder $end
$var wire 1 8" clk_en $end
$var wire 32 9" PC [31:0] $end
$var reg 32 :" PCplus4 [31:0] $end
$upscope $end
$scope module alu $end
$var wire 1 P clk_en $end
$var wire 6 ;" functcode [5:0] $end
$var wire 16 <" immediate [15:0] $end
$var wire 6 =" opcode [5:0] $end
$var wire 6 >" rt_instr [5:0] $end
$var wire 5 ?" shamt [4:0] $end
$var wire 32 @" rt_content [31:0] $end
$var wire 32 A" rs_content [31:0] $end
$var reg 32 B" ALU_result [31:0] $end
$var reg 32 C" HI [31:0] $end
$var reg 32 D" LO [31:0] $end
$var reg 64 E" MultRes [63:0] $end
$var reg 1 *" sig_branch $end
$var reg 32 F" signExtend [31:0] $end
$var reg 32 G" signed_rs [31:0] $end
$var reg 32 H" signed_rt [31:0] $end
$var reg 32 I" temp [31:0] $end
$var reg 32 J" zeroExtend [31:0] $end
$var integer 32 K" i [31:0] $end
$upscope $end
$scope module delayreg $end
$var wire 1 *" Branch $end
$var wire 32 L" PCplus8 [31:0] $end
$var wire 32 M" branch_address [31:0] $end
$var wire 1 * clk $end
$var wire 1 c clk_en $end
$var wire 32 N" rs_content [31:0] $end
$var wire 32 O" jump_address [31:0] $end
$var wire 1 $" Jump $end
$var wire 1 %" JR $end
$var reg 32 P" delay_addr [31:0] $end
$upscope $end
$scope module jump_addr_mod $end
$var wire 4 Q" PC_next31_28 [3:0] $end
$var wire 26 R" instr25_0 [25:0] $end
$var reg 32 S" jump_address [31:0] $end
$var reg 28 T" shifted [27:0] $end
$upscope $end
$scope module maincontrol $end
$var wire 1 P clk_en $end
$var wire 6 U" funct [5:0] $end
$var wire 6 V" opcode [5:0] $end
$var wire 6 W" rt [5:0] $end
$var reg 2 X" HI_write [1:0] $end
$var reg 1 %" JR $end
$var reg 1 $" Jump $end
$var reg 2 Y" LO_write [1:0] $end
$var reg 1 N MemRead $end
$var reg 1 L MemWrite $end
$var reg 3 Z" MemtoReg [2:0] $end
$var reg 2 [" RegDst [1:0] $end
$var reg 2 \" RegWrite [1:0] $end
$var reg 1 t delay_early $end
$var reg 2 ]" store_type [1:0] $end
$upscope $end
$scope module mux_datamem $end
$var wire 3 ^" CtlSig [2:0] $end
$var wire 32 _" HI_reg [31:0] $end
$var wire 32 `" InputA [31:0] $end
$var wire 32 a" InputC [31:0] $end
$var wire 32 b" InputD [31:0] $end
$var wire 32 c" LO_reg [31:0] $end
$var wire 32 d" InputB [31:0] $end
$var reg 32 e" Output [31:0] $end
$upscope $end
$scope module mux_reg $end
$var wire 2 f" RegDst [1:0] $end
$var wire 5 g" inst15_11 [15:11] $end
$var wire 5 h" inst20_16 [20:16] $end
$var reg 5 i" WriteReg [4:0] $end
$upscope $end
$scope module pc $end
$var wire 1 * clk $end
$var wire 1 P clk_enable $end
$var wire 1 - reset $end
$var wire 32 j" PCin [31:0] $end
$var reg 32 k" PCout [31:0] $end
$upscope $end
$scope module pcaddr $end
$var wire 1 ," CtlSig $end
$var wire 32 l" InputA [31:0] $end
$var wire 32 m" InputB [31:0] $end
$var reg 32 n" Output [31:0] $end
$upscope $end
$scope module regfile $end
$var wire 32 o" ReadData1 [31:0] $end
$var wire 32 p" ReadData2 [31:0] $end
$var wire 5 q" ReadReg1 [4:0] $end
$var wire 5 r" ReadReg2 [4:0] $end
$var wire 2 s" RegWrite [1:0] $end
$var wire 32 t" WriteData [31:0] $end
$var wire 5 u" WriteReg [4:0] $end
$var wire 1 * clk $end
$var wire 2 v" data_address2LSB [1:0] $end
$var wire 32 w" register_v0 [31:0] $end
$var wire 1 - reset $end
$var integer 32 x" i [31:0] $end
$upscope $end
$scope module selectmod $end
$var wire 2 y" data_address2LSB [1:0] $end
$var wire 32 z" fullread [31:0] $end
$var wire 6 {" opcode [5:0] $end
$var reg 32 |" ReadData [31:0] $end
$upscope $end
$scope module shift2 $end
$var wire 32 }" ShiftOut [31:0] $end
$var wire 32 ~" ShiftIn [31:0] $end
$upscope $end
$scope module sign_ext $end
$var wire 16 !# instr15_0 [15:0] $end
$var wire 32 "# Extend32 [31:0] $end
$upscope $end
$upscope $end
$upscope $end
$upscope $end
$enddefinitions $end
#0
$dumpvars
b0 "#
b0 !#
b0 ~"
b0 }"
b0 |"
b0 {"
b0 z"
bx y"
bx x"
bx w"
bx v"
b0 u"
bx t"
b11 s"
b0 r"
b0 q"
bx p"
bx o"
bx n"
bx m"
bx l"
bx k"
bx j"
b0 i"
b0 h"
b0 g"
b1 f"
bx e"
b0 d"
bx c"
bx b"
bx a"
bx `"
bx _"
b0 ^"
bx ]"
b11 \"
b1 ["
b0 Z"
b0 Y"
b0 X"
b0 W"
b0 V"
b0 U"
b0 T"
bx0000000000000000000000000000 S"
b0 R"
bx Q"
bx P"
bx0000000000000000000000000000 O"
bx N"
bx M"
bx L"
bx K"
bx J"
bx I"
bx H"
bx G"
bx F"
bx E"
bx D"
bx C"
bx B"
bx A"
bx @"
b0 ?"
b0 >"
b0 ="
b0 <"
b0 ;"
bx :"
bx 9"
z8"
bx 7"
bx 6"
b0 5"
bx 4"
b0 3"
bx 2"
bx 1"
bx 0"
b0 /"
bx ."
bx -"
x,"
bx +"
x*"
b0 )"
bx ("
bx '"
b0 &"
0%"
0$"
bx #"
bx ""
b0 !"
b0 ~
bx }
bx |
bx {
b1 z
b11 y
b0 x
bx w
bx v
bx u
0t
b0 s
b0 r
b0 q
bx p
bx0000000000000000000000000000 o
b0 n
bx m
bx l
bx k
b0 j
b0 i
b0 h
bx g
bx f
b0 e
b0 d
zc
bx b
b1111 a
b0 `
b0 _
b0 ^
b0 ]
b1111 \
bx [
bx Z
bx Y
bx X
bx W
bx00 V
bx U
b0 T
1S
bx R
b1111 Q
0P
bx O
0N
b0 M
0L
bx K
bx J
b0 I
0H
bx G
bx F
b0 E
b0 D
b10000000000 C
bx B
b1 A
b0 @
bx ?
bx >
bx =
bx <
b1111 ;
bx :
bx 9
bx 8
b0 7
b0 6
b0xxxxxxxxxxxxxxxxxxxxxxxxxxxxxx 5
bx 4
bx 3
bx 2
bx 1
bx 0
b1 /
b10000000000000000000000000000011 .
1-
b10100 ,
0+
0*
0)
bx (
b1111 '
1&
b0 %
bx $
1#
0"
b0 !
$end
#1000
b100110000100000000000000000011 8
b10110000000000000000000000000000 o
b10110000000000000000000000000000 O"
b10110000000000000000000000000000 S"
b0 b
b0 <
b100110000100000000000000000011 4
b111100 9
b10111100000000000000101010 :
b1000000000010101 >
b111111111111111000000000100000 =
b101111111100000000000000000000 5
b1011 Q"
b10111111110000000000000000000100 }
b10111111110000000000000000000100 j"
b10111111110000000000000000000100 n"
b10111111110000000000000000000100 w
b10111111110000000000000000000100 7"
b10111111110000000000000000000100 M"
b0 K
b0 Y
b0 +"
b10111111110000000000000000000000 (
b10111111110000000000000000000000 ?
b10111111110000000000000000000000 R
b10111111110000000000000000000000 [
b10111111110000000000000000001000 {
b10111111110000000000000000001000 a"
b10111111110000000000000000000100 |
b10111111110000000000000000000100 6"
b10111111110000000000000000000100 :"
b10111111110000000000000000000100 L"
b10111111110000000000000000000100 b"
b10111111110000000000000000000100 l"
b10 A
b1 `
b10111111110000000000000000000000 J
b10111111110000000000000000000000 X
b10111111110000000000000000000000 p
b10111111110000000000000000000000 9"
b10111111110000000000000000000000 k"
b0 $
b0 G
b0 m
b0 w"
b0 l
b0 A"
b0 N"
b0 o"
b0 k
b0 @"
b0 p"
b0 '"
b0 -"
b0 _"
b0 0"
b0 ""
b0 1"
b0 c"
b0 4"
1)
0,"
0-
1+
b100000 x"
1*
#2000
0*
#3000
0#
b10111111110000000000000000000100 u
b10111111110000000000000000000100 P"
b10111111110000000000000000000100 m"
b11 A
b100110000100000000000000000011 %
b100110000100000000000000000011 @
b100110000100000000000000000011 D
b100110000100000000000000000011 T
1*
#4000
0*
#5000
b10111111110000000000000000010000 w
b10111111110000000000000000010000 7"
b10111111110000000000000000010000 M"
b11 y"
b11 v"
b11 U
b0 V
b11 f
b11 e"
b11 t"
b1100 s
b1100 5"
b1100 }"
b10000 x
b10000 i"
b10000 u"
b10111000010000000000000000001100 o
b10111000010000000000000000001100 O"
b10111000010000000000000000001100 S"
b1000010000000000000000001100 T"
b11 O
b11 Z
b11 v
b11 B"
b11 `"
b11 J"
b11 F"
b0 #"
b0 2"
b0 D"
b0 ("
b0 ."
b0 C"
0*"
b0 H"
b0 G"
b0 z
b0 ["
b0 f"
b0 y
b0 \"
b0 s"
b1001 n
b1001 ="
b1001 V"
b1001 {"
b11 r
b11 ;"
b11 U"
b11 )"
b11 ~"
b11 "#
b11 q
b11 <"
b11 !#
b10000 j
b10000 >"
b10000 W"
b10000 h"
b10000 q"
b10000 r"
b10000100000000000000000011 R"
0&
1P
b1 A
b100110000100000000000000000011 I
b100110000100000000000000000011 _
b100110000100000000000000000011 e
b100 `
1*
#6000
0*
#7000
b100110001100010000000000000011 8
b10111111110000000000000000010100 w
b10111111110000000000000000010100 7"
b10111111110000000000000000010100 M"
b10111111110000000000000000001000 }
b10111111110000000000000000001000 j"
b10111111110000000000000000001000 n"
b100110001100010000000000000011 4
b111101 9
b10111100000000000000101011 :
b1000000000010110 >
b111111111111111000000000100001 =
b101111111100000000000000000001 5
b11 y
b11 \"
b11 s"
b10111111110000000000000000001100 {
b10111111110000000000000000001100 a"
b10111111110000000000000000001000 |
b10111111110000000000000000001000 6"
b10111111110000000000000000001000 :"
b10111111110000000000000000001000 L"
b10111111110000000000000000001000 b"
b10111111110000000000000000001000 l"
1#
1&
b10111111110000000000000000000100 (
b10111111110000000000000000000100 ?
b10111111110000000000000000000100 R
b10111111110000000000000000000100 [
0P
b10111111110000000000000000000100 J
b10111111110000000000000000000100 X
b10111111110000000000000000000100 p
b10111111110000000000000000000100 9"
b10111111110000000000000000000100 k"
b0 `
1*
#8000
0*
#9000
b11 b
b11 K
b11 Y
b11 +"
b10 A
b1 `
b10111111110000000000000000001000 u
b10111111110000000000000000001000 P"
b10111111110000000000000000001000 m"
b11 l
b11 A"
b11 N"
b11 o"
b11 k
b11 @"
b11 p"
1*
#10000
0*
#11000
0#
b11 A
b100110001100010000000000000011 %
b100110001100010000000000000011 @
b100110001100010000000000000011 D
b100110001100010000000000000011 T
1*
#12000
0*
#13000
b0 b
b0 K
b0 Y
b0 +"
b10001 x
b10001 i"
b10001 u"
b10111000110001000000000000001100 o
b10111000110001000000000000001100 O"
b10111000110001000000000000001100 S"
b1000110001000000000000001100 T"
b0 y
b0 \"
b0 s"
b10001 j
b10001 >"
b10001 W"
b10001 h"
b0 l
b0 A"
b0 N"
b0 o"
b10001 q"
b0 k
b0 @"
b0 p"
b10001 r"
b10001100010000000000000011 R"
0&
1P
b1 A
b100110001100010000000000000011 I
b100110001100010000000000000011 _
b100110001100010000000000000011 e
b100 `
1*
#14000
0*
#15000
b10010000100010111111111111111 8
b10111111110000000000000000011000 w
b10111111110000000000000000011000 7"
b10111111110000000000000000011000 M"
b10111111110000000000000000001100 }
b10111111110000000000000000001100 j"
b10111111110000000000000000001100 n"
b10010000100010111111111111111 4
b111110 9
b10111100000000000000101100 :
b1000000000010111 >
b111111111111111000000000100010 =
b101111111100000000000000000010 5
b11 y
b11 \"
b11 s"
b10111111110000000000000000010000 {
b10111111110000000000000000010000 a"
b10111111110000000000000000001100 |
b10111111110000000000000000001100 6"
b10111111110000000000000000001100 :"
b10111111110000000000000000001100 L"
b10111111110000000000000000001100 b"
b10111111110000000000000000001100 l"
1#
1&
b10111111110000000000000000001000 (
b10111111110000000000000000001000 ?
b10111111110000000000000000001000 R
b10111111110000000000000000001000 [
0P
b10111111110000000000000000001000 J
b10111111110000000000000000001000 X
b10111111110000000000000000001000 p
b10111111110000000000000000001000 9"
b10111111110000000000000000001000 k"
b0 `
1*
#16000
0*
#17000
b11 b
b11 K
b11 Y
b11 +"
b10 A
b1 `
b10111111110000000000000000001100 u
b10111111110000000000000000001100 P"
b10111111110000000000000000001100 m"
b11 l
b11 A"
b11 N"
b11 o"
b11 k
b11 @"
b11 p"
1*
#18000
0*
#19000
0#
b11 A
b10010000100010111111111111111 %
b10010000100010111111111111111 @
b10010000100010111111111111111 D
b10010000100010111111111111111 T
1*
#20000
0*
#21000
b10111111110000100000000000001000 w
b10111111110000100000000000001000 7"
b10111111110000100000000000001000 M"
b0 y"
b0 v"
b0 U
b0 f
b0 e"
b0 t"
b11111111111111100 s
b11111111111111100 5"
b11111111111111100 }"
b10111000010001011111111111111100 o
b10111000010001011111111111111100 O"
b10111000010001011111111111111100 S"
b1000010001011111111111111100 T"
1*"
b0 O
b0 Z
b0 v
b0 B"
b0 `"
b111111111111111 J"
b111111111111111 F"
b11 #"
b11 2"
b11 D"
b11 ("
b11 ."
b11 C"
b11 H"
b11 G"
b0 y
b0 \"
b0 s"
b100 n
b100 ="
b100 V"
b100 {"
b111111 r
b111111 ;"
b111111 U"
b111111111111111 )"
b111111111111111 ~"
b111111111111111 "#
b111111111111111 q
b111111111111111 <"
b111111111111111 !#
b11111 h
b11111 ?"
b1111 g"
b10000 q"
b10000100010111111111111111 R"
0&
1P
b1 A
b10010000100010111111111111111 I
b10010000100010111111111111111 _
b10010000100010111111111111111 e
b100 `
1*
#22000
0*
#23000
b0 8
b10111111110000100000000000001100 w
b10111111110000100000000000001100 7"
b10111111110000100000000000001100 M"
b0 4
b111111 9
b10111100000000000000101101 :
b1000000000011000 >
b111111111111111000000000100011 =
b101111111100000000000000000011 5
1t
b10111111110000000000000000010000 }
b10111111110000000000000000010000 j"
b10111111110000000000000000010000 n"
b10111111110000000000000000010100 {
b10111111110000000000000000010100 a"
b10111111110000000000000000010000 |
b10111111110000000000000000010000 6"
b10111111110000000000000000010000 :"
b10111111110000000000000000010000 L"
b10111111110000000000000000010000 b"
b10111111110000000000000000010000 l"
1#
1&
b10111111110000000000000000001100 (
b10111111110000000000000000001100 ?
b10111111110000000000000000001100 R
b10111111110000000000000000001100 [
0P
b10111111110000100000000000000100 u
b10111111110000100000000000000100 P"
b10111111110000100000000000000100 m"
b10111111110000000000000000001100 J
b10111111110000000000000000001100 X
b10111111110000000000000000001100 p
b10111111110000000000000000001100 9"
b10111111110000000000000000001100 k"
b0 `
1*
#24000
0*
#25000
b10111111110000100000000000001000 }
b10111111110000100000000000001000 j"
b10111111110000100000000000001000 n"
b10 A
b1 `
b10111111110000100000000000001000 u
b10111111110000100000000000001000 P"
b10111111110000100000000000001000 m"
1,"
1*
#26000
0*
#27000
0#
b11 A
b0 %
b0 @
b0 D
b0 T
1*
#28000
0*
#29000
b10111111110000000000000000010000 w
b10111111110000000000000000010000 7"
b10111111110000000000000000010000 M"
b0 b
b0 s
b0 5"
b0 }"
b0 K
b0 Y
b0 +"
b0 x
b0 i"
b0 u"
b10110000000000000000000000000000 o
b10110000000000000000000000000000 O"
b10110000000000000000000000000000 S"
b0 T"
b0 #"
b0 2"
b0 D"
b0 ("
b0 ."
b0 C"
0*"
b0 H"
b0 G"
0t
b0 n
b0 ="
b0 V"
b0 {"
b0 r
b0 ;"
b0 U"
b0 )"
b0 ~"
b0 "#
b0 q
b0 <"
b0 !#
b0 h
b0 ?"
b0 j
b0 >"
b0 W"
b0 h"
b0 g"
b0 l
b0 A"
b0 N"
b0 o"
b0 q"
b0 k
b0 @"
b0 p"
b0 r"
b0 R"
0&
1P
b1 A
b0 I
b0 _
b0 e
b100 `
1*
#30000
0*
#31000
b100100010000100000000000010100 8
b10111111110000100000000000001100 w
b10111111110000100000000000001100 7"
b10111111110000100000000000001100 M"
bx 4
b1000000000111110 9
b10111100001000000000101100 :
b10000000000010111 >
b100100010000100000000000010100 1
b100010 =
b101111111100001000000000000010 5
b11 y
b11 \"
b11 s"
b1 z
b1 ["
b1 f"
b10111111110000100000000000001100 }
b10111111110000100000000000001100 j"
b10111111110000100000000000001100 n"
b10111111110000100000000000010000 {
b10111111110000100000000000010000 a"
b10111111110000100000000000001100 |
b10111111110000100000000000001100 6"
b10111111110000100000000000001100 :"
b10111111110000100000000000001100 L"
b10111111110000100000000000001100 b"
b10111111110000100000000000001100 l"
1#
1&
b10111111110000100000000000001000 (
b10111111110000100000000000001000 ?
b10111111110000100000000000001000 R
b10111111110000100000000000001000 [
0P
0,"
b10111111110000000000000000010000 u
b10111111110000000000000000010000 P"
b10111111110000000000000000010000 m"
b10111111110000100000000000001000 J
b10111111110000100000000000001000 X
b10111111110000100000000000001000 p
b10111111110000100000000000001000 9"
b10111111110000100000000000001000 k"
b0 `
1*
#32000
0*
#33000
b10 A
b1 `
b10111111110000100000000000001100 u
b10111111110000100000000000001100 P"
b10111111110000100000000000001100 m"
1*
#34000
0*
#35000
0#
b11 A
b100100010000100000000000010100 %
b100100010000100000000000010100 @
b100100010000100000000000010100 D
b100100010000100000000000010100 T
1*
#36000
0*
#37000
b10111111110000100000000001011100 w
b10111111110000100000000001011100 7"
b10111111110000100000000001011100 M"
b10100 V
b10100 f
b10100 e"
b10100 t"
b1010000 s
b1010000 5"
b1010000 }"
b10 x
b10 i"
b10 u"
b10110001000010000000000001010000 o
b10110001000010000000000001010000 O"
b10110001000010000000000001010000 S"
b1000010000000000001010000 T"
b10100 O
b10100 Z
b10100 v
b10100 B"
b10100 `"
b10100 J"
b10100 F"
b0 z
b0 ["
b0 f"
b0 y
b0 \"
b0 s"
b1001 n
b1001 ="
b1001 V"
b1001 {"
b10100 r
b10100 ;"
b10100 U"
b10100 )"
b10100 ~"
b10100 "#
b10100 q
b10100 <"
b10100 !#
b10 j
b10 >"
b10 W"
b10 h"
b10 q"
b10 r"
b10000100000000000010100 R"
0&
1P
b1 A
b100100010000100000000000010100 I
b100100010000100000000000010100 _
b100100010000100000000000010100 e
b100 `
1*
#38000
0*
#39000
b10111110001000000100001 8
b10111111110000100000000001100000 w
b10111111110000100000000001100000 7"
b10111111110000100000000001100000 M"
b10111111110000100000000000010000 }
b10111111110000100000000000010000 j"
b10111111110000100000000000010000 n"
b1000000000111111 9
b10111100001000000000101101 :
b10000000000011000 >
b10111110001000000100001 1
b100011 =
b101111111100001000000000000011 5
b11 y
b11 \"
b11 s"
b10111111110000100000000000010100 {
b10111111110000100000000000010100 a"
b10111111110000100000000000010000 |
b10111111110000100000000000010000 6"
b10111111110000100000000000010000 :"
b10111111110000100000000000010000 L"
b10111111110000100000000000010000 b"
b10111111110000100000000000010000 l"
1#
1&
b10111111110000100000000000001100 (
b10111111110000100000000000001100 ?
b10111111110000100000000000001100 R
b10111111110000100000000000001100 [
0P
b10111111110000100000000000001100 J
b10111111110000100000000000001100 X
b10111111110000100000000000001100 p
b10111111110000100000000000001100 9"
b10111111110000100000000000001100 k"
b0 `
1*
#40000
0*
#41000
b10100 b
b10100 K
b10100 Y
b10100 +"
b10 A
b1 `
b10111111110000100000000000010000 u
b10111111110000100000000000010000 P"
b10111111110000100000000000010000 m"
b10100 l
b10100 A"
b10100 N"
b10100 o"
b10100 k
b10100 @"
b10100 p"
b10100 $
b10100 G
b10100 m
b10100 w"
1*
#42000
0*
#43000
0#
b11 A
b10111110001000000100001 %
b10111110001000000100001 @
b10111110001000000100001 D
b10111110001000000100001 T
1*
#44000
0*
#45000
b10111111110000100100000010010100 w
b10111111110000100100000010010100 7"
b10111111110000100100000010010100 M"
b0 b
b100000010000100 s
b100000010000100 5"
b100000010000100 }"
b0 K
b0 Y
b0 +"
b11111 x
b11111 i"
b11111 u"
b10110001011111000100000010000100 o
b10110001011111000100000010000100 O"
b10110001011111000100000010000100 S"
b1011111000100000010000100 T"
b10100 #"
b10100 2"
b10100 D"
b10100 ("
b10100 ."
b10100 C"
b10100 G"
b0 y
b0 \"
b0 s"
b0 n
b0 ="
b0 V"
b0 {"
b100001 r
b100001 ;"
b100001 U"
b1000000100001 )"
b1000000100001 ~"
b1000000100001 "#
b1000000100001 q
b1000000100001 <"
b1000000100001 !#
b11111 j
b11111 >"
b11111 W"
b11111 h"
b10 g"
b0 k
b0 @"
b0 p"
b11111 r"
b10111110001000000100001 R"
0&
1P
b1 A
b10111110001000000100001 I
b10111110001000000100001 _
b10111110001000000100001 e
b100 `
1*
#46000
0*
#47000
b1000 8
b10 x
b10 i"
b10 u"
b10111111110000100100000010011000 w
b10111111110000100100000010011000 7"
b10111111110000100100000010011000 M"
b10111111110000100000000000010100 }
b10111111110000100000000000010100 j"
b10111111110000100000000000010100 n"
b1000000001000000 9
b10111100001000000000101110 :
b10000000000011001 >
b1000 1
b100100 =
b101111111100001000000000000100 5
b11 y
b11 \"
b11 s"
b1 z
b1 ["
b1 f"
b10111111110000100000000000011000 {
b10111111110000100000000000011000 a"
b10111111110000100000000000010100 |
b10111111110000100000000000010100 6"
b10111111110000100000000000010100 :"
b10111111110000100000000000010100 L"
b10111111110000100000000000010100 b"
b10111111110000100000000000010100 l"
1#
1&
b10111111110000100000000000010000 (
b10111111110000100000000000010000 ?
b10111111110000100000000000010000 R
b10111111110000100000000000010000 [
0P
b10111111110000100000000000010000 J
b10111111110000100000000000010000 X
b10111111110000100000000000010000 p
b10111111110000100000000000010000 9"
b10111111110000100000000000010000 k"
b0 `
1*
#48000
0*
#49000
b10 A
b1 `
b10111111110000100000000000010100 u
b10111111110000100000000000010100 P"
b10111111110000100000000000010100 m"
1*
#50000
0*
#51000
0#
b11 A
b1000 %
b1000 @
b1000 D
b1000 T
1*
#52000
0*
#53000
b10111111110000100000000000110100 w
b10111111110000100000000000110100 7"
b10111111110000100000000000110100 M"
b100000 s
b100000 5"
b100000 }"
b0 x
b0 i"
b0 u"
b10110000000000000000000000100000 o
b10110000000000000000000000100000 O"
b10110000000000000000000000100000 S"
b100000 T"
b0 #"
b0 2"
b0 D"
b0 ("
b0 ."
b0 C"
b0 G"
1t
1%"
b1 z
b1 ["
b1 f"
b0 y
b0 \"
b0 s"
b1000 r
b1000 ;"
b1000 U"
b1000 )"
b1000 ~"
b1000 "#
b1000 q
b1000 <"
b1000 !#
b0 j
b0 >"
b0 W"
b0 h"
b0 g"
b0 l
b0 A"
b0 N"
b0 o"
b0 q"
b0 r"
b1000 R"
0&
1P
b1 A
b1000 I
b1000 _
b1000 e
b100 `
1*
#54000
0*
#55000
b0 8
b10111111110000100000000000111000 w
b10111111110000100000000000111000 7"
b10111111110000100000000000111000 M"
b1000000001000001 9
b10111100001000000000101111 :
b10000000000011010 >
b0 1
b100101 =
b101111111100001000000000000101 5
1t
b1 z
b1 ["
b1 f"
1%"
b0 }
b0 j"
b0 n"
b10111111110000100000000000011100 {
b10111111110000100000000000011100 a"
b10111111110000100000000000011000 |
b10111111110000100000000000011000 6"
b10111111110000100000000000011000 :"
b10111111110000100000000000011000 L"
b10111111110000100000000000011000 b"
b10111111110000100000000000011000 l"
1#
1&
b10111111110000100000000000010100 (
b10111111110000100000000000010100 ?
b10111111110000100000000000010100 R
b10111111110000100000000000010100 [
0P
1,"
b0 u
b0 P"
b0 m"
b10111111110000100000000000010100 J
b10111111110000100000000000010100 X
b10111111110000100000000000010100 p
b10111111110000100000000000010100 9"
b10111111110000100000000000010100 k"
b0 `
1*
#56000
0*
#57000
b10 A
b1 `
1*
#58000
0*
#59000
0#
b11 A
b0 %
b0 @
b0 D
b0 T
1*
#60000
0*
#61000
b10111111110000100000000000011000 w
b10111111110000100000000000011000 7"
b10111111110000100000000000011000 M"
b0 V
b0 f
b0 e"
b0 t"
b0 s
b0 5"
b0 }"
b10110000000000000000000000000000 o
b10110000000000000000000000000000 O"
b10110000000000000000000000000000 S"
b0 T"
b0 O
b0 Z
b0 v
b0 B"
b0 `"
0t
b0 z
b0 ["
b0 f"
0%"
b0 r
b0 ;"
b0 U"
b0 )"
b0 ~"
b0 "#
b0 q
b0 <"
b0 !#
b0 R"
0&
1P
b1 A
b0 I
b0 _
b0 e
b100 `
1*
#62000
0*
